// Jest Snapshot v1, https://goo.gl/fbAQLP

exports[`<EmailInput> Should match snapshot 1`] = `
<Input
  handleItemAdd={[Function]}
  handleItemRemove={[Function]}
  handleKeypress={[Function]}
  handleValueChange={[Function]}
  label="LABEL"
  name="NAME"
  options={Array []}
  placeholder="PLACEHOLDER"
  testRegEx={/\\^\\[-a-z0-9~!\\$%\\^&\\*_=\\+\\}\\{'\\?\\]\\+\\(\\\\\\.\\[-a-z0-9~!\\$%\\^&\\*_=\\+\\}\\{'\\?\\]\\+\\)\\*@\\(\\[a-z0-9_\\]\\[-a-z0-9_\\]\\*\\(\\\\\\.\\[-a-z0-9_\\]\\+\\)\\*\\\\\\.\\(aero\\|arpa\\|biz\\|com\\|coop\\|edu\\|gov\\|info\\|int\\|mil\\|museum\\|name\\|net\\|org\\|pro\\|travel\\|mobi\\|\\[a-z\\]\\[a-z\\]\\)\\|\\(\\[0-9\\]\\{1,3\\}\\\\\\.\\[0-9\\]\\{1,3\\}\\\\\\.\\[0-9\\]\\{1,3\\}\\\\\\.\\[0-9\\]\\{1,3\\}\\)\\)\\(:\\[0-9\\]\\{1,5\\}\\)\\?\\$/i}
  value=""
  values={Array []}
/>
`;
